[
	{
		"id" : 1,
		"username" : "robotzel",
		"full_name" : "[BOT] Bistriteanul",
		"password" : "fuckThisShitImOuttaHere",
		"group_roles" : "robot",
		"email" : "no-reply@bistriteanul.ro"
	},
	{
		"id" : 3,
		"username" : "ralu03",
		"full_name" : "Raluca NECHITI",
		"password" : "p1t1c0",
		"group_roles" : "redactor șef",
		"email" : "ralucanechiti@bistriteanul.ro"
	},
	{
		"id" : 4,
		"username" : "lmarius",
		"full_name" : "Marius LAZAROI",
		"password" : "asterixx",
		"group_roles" : "director tehnic",
		"email" : "lmarius@bistriteanul.ro"
	},
	{
		"id" : 5,
		"username" : "robery",
		"full_name" : "Robert COLCA",
		"password" : "aliensnnj123",
		"group_roles" : "sysop",
		"email" : "robery@bla.eu"
	},
	{
		"id" : 5,
		"username" : "hktr92",
		"full_name" : "Petru SZEMERECZKI",
		"password" : "testtest",
		"group_roles" : "sysop",
		"email" : "szemereczkipetru@gmail.com"
	},
	{
		"id" : 7,
		"username" : "claudia",
		"full_name" : "Claudia ANDRON",
		"password" : "2001_0528",
		"group_roles" : "managing director",
		"email" : "claudiaandron@bistriteanul.ro"
	},
	{
		"id" : 36,
		"username" : "Iulia",
		"full_name" : "Andreea BOJOR",
		"password" : "iulia",
		"group_roles" : "reporter",
		"email" : "andreeabojor@bistriteanul.ro"
	},
	{
		"id" : 37,
		"username" : "ralu",
		"full_name" : "Cristina MILEA",
		"password" : "raluca",
		"group_roles" : "reporter",
		"email" : "redactia@bistriteanul.ro"
	},
	{
		"id" : 41,
		"username" : "nadia",
		"full_name" : "Nadia URIAN",
		"password" : "alin",
		"group_roles" : "colaborator",
		"email" : "redactia@bistriteanul.ro"
	},
	{
		"id" : 56,
		"username" : "Adrian",
		"full_name" : "Ana ȘTEFĂNEL",
		"password" : "daniel",
		"group_roles" : "reporter",
		"email" : "redactia@bistriteanul.ro"
	},
	{
		"id" : 49,
		"username" : "Mircea",
		"full_name" : "Adrian SOLCAN",
		"password" : "mircea",
		"group_roles" : "colaborator",
		"email" : "redactia@bistriteanul.ro"
	},
	{
		"id" : 52,
		"username" : "Ioana",
		"full_name" : "Ioana BRADEA",
		"password" : "ioana",
		"group_roles" : "redactor",
		"email" : "ioanabradea@bistriteanul.ro"
	},
	{
		"id" : 53,
		"username" : "Bistritel",
		"full_name" : "BISTRIȚEL",
		"password" : "bistritel",
		"group_roles" : "colaborator",
		"email" : "redactia@bistriteanul.ro"
	},
	{
		"id" : 55,
		"username" : "Felicia",
		"full_name" : "Felicia SZUCS",
		"password" : "feli",
		"group_roles" : "colaborator",
		"email" : "redactia@bistriteanul.ro"
	},
	{
		"id" : 58,
		"username" : "flaviad",
		"full_name" : "Bianca SARA",
		"password" : "flaviad",
		"group_roles" : "reporter",
		"email" : "redactia@bistriteanul.ro"
	},
	{
		"id" : 59,
		"username" : "Facebook ",
		"full_name" : "Facebook POLICE",
		"password" : "clau",
		"group_roles" : "colaborator",
		"email" : "redactia@bistriteanul.ro"
	},
	{
		"id" : 61,
		"username" : "Vlad",
		"full_name" : "Vlad GAVRILĂ",
		"password" : "BISTRITEANUL",
		"group_roles" : "fotoreporter",
		"email" : "redactia@bistriteanul.ro"
	},
	{
		"id" : 60,
		"username" : "ramy",
		"full_name" : "Cristina ALEXA",
		"password" : "ramy",
		"group_roles" : "reporter colaborator",
		"email" : "redactia@bistriteanul.ro"
	}
]
